Social Network Analysis/Demonstration
…
The library allows to visualize the ego networks and more importantly, easily obtain important ego network metrics that we can then enter in models to predict outcomes of interest.

Advanced ego network metrics

Density

This metric estimates the proportion (or strength) of ties among the respondents close contacts that are present out of all possible. For example, if I have three friends, there are three possible links between them: 1 and 2, 1 and 3, and 2 and 3. If only the first two exist but friend 2 and 3 do not know each other, then the density is 2/3 = 0.667. Density is undefined when the size of the network is < 2.

ego_density(e1)

## # A tibble: 1,426 x 2
##    .egoID density
##    <chr>    <dbl>
##  1 1      NaN    
##  2 2      NaN    
##  3 3        0.833
##  4 4        0.833
##  5 5      NaN    
##  6 6        0.9  
##  7 7      NaN    
##  8 8        0    
##  9 9      NaN    
## 10 10       0    
## #  with 1,416 more rows
…
